*** Life<ConwayCell> 10x19 ***

Generation = 0, Population = 31.
........*.......*..
.....*....*......**
.*.......*.*..*....
..............**..*
....*...*..........
..*...*.........*..
..*......*..**..*..
*.*............*..*
..*.............*..
...*...*...........

Generation = 4, Population = 26.
.................*.
.........**.....*.*
.........**....*..*
................*..
..............***..
................*..
....*.........**...
..*.*.........**...
..*.*...........*..
..**...............

Generation = 8, Population = 22.
...................
.........**........
.........**........
...................
...................
....*...........**.
..***..........*..*
..**.*.........*.*.
.*.**...........*..
....*..............

Generation = 12, Population = 14.
...................
.........**........
.........**........
...................
...................
................**.
.....*.........*..*
......**.......*.*.
................*..
...................

*** Life<ConwayCell> 14x8 ***

Generation = 0, Population = 40.
.......*
*.***.**
*...*.*.
***.....
**..*...
**......
....**..
**.*.*.*
..**.**.
*.*.*...
..*...**
....*...
..*....*
.*.....*

Generation = 5, Population = 26.
......*.
.....*.*
....*..*
..*.*...
*.*.*.*.
....*...
..***...
..*.....
...*.*..
*..*....
.....***
...*..*.
.....*..
........

Generation = 10, Population = 23.
........
...***..
.*...**.
.*......
*....**.
**......
**......
*...**..
.*..**..
..***...
........
........
........
........

Generation = 15, Population = 5.
........
..*.*...
........
........
........
........
........
.*......
*.......
.*......
........
........
........
........

*** Life<ConwayCell> 13x10 ***

Generation = 0, Population = 14.
.........*
........**
.*......*.
....*..*..
........*.
.....*....
..........
...*......
..........
.......*..
.....*....
.........*
.........*

Generation = 3, Population = 0.
..........
..........
..........
..........
..........
..........
..........
..........
..........
..........
..........
..........
..........

Generation = 6, Population = 0.
..........
..........
..........
..........
..........
..........
..........
..........
..........
..........
..........
..........
..........

Generation = 9, Population = 0.
..........
..........
..........
..........
..........
..........
..........
..........
..........
..........
..........
..........
..........

*** Life<ConwayCell> 5x14 ***

Generation = 0, Population = 17.
*..*...*...*.*
.....*....*..*
*.*.*.......*.
....*....*....
..*.......*..*

Generation = 5, Population = 5.
...*..........
..**..........
..*...........
...*..........
..............

Generation = 10, Population = 0.
..............
..............
..............
..............
..............

Generation = 15, Population = 0.
..............
..............
..............
..............
..............

*** Life<ConwayCell> 1x4 ***

Generation = 0, Population = 2.
.*.*

Generation = 5, Population = 0.
....

Generation = 10, Population = 0.
....

Generation = 15, Population = 0.
....

Generation = 20, Population = 0.
....

*** Life<ConwayCell> 10x24 ***

Generation = 0, Population = 119.
.*........***..*..*....*
*.********.*.*.**.***.*.
**.**....***.**.*..*..**
**...****.*.*..*.*.****.
*....*...**.*.*****.**.*
*.****..*.***.....*.*.*.
..*.*.***.*....****.**..
.*.*..**...**..**....**.
.*....*.*.....***.***...
**.....*.***..*.****...*

Generation = 4, Population = 42.
..............***.***...
.............*..*.*.....
..*...........*....***..
.....***.....*.......*..
..*..**.........*.......
..........*....*........
.**....*.*.........***..
*.*......*.........*....
...........*.......**...
*.*........*............

Generation = 8, Population = 44.
..............***.**....
.............*..*.*****.
......*......**........*
.....*..............*.*.
......*............*..*.
..........*........*.*..
..**...**..*......**.**.
.......**.........*..*..
........****.......**...
........................

*** Life<ConwayCell> 7x23 ***

Generation = 0, Population = 28.
*.......*.........*....
....*...*...*.*....*.**
....*...*......*.......
*...*...*.......*......
.....*.*.*.............
...............*...*...
..*...*.*.*...**.......

Generation = 5, Population = 24.
....**.................
....**..**.............
.....****..............
.......**..............
.....*..*..............
.....**.*.....**.......
.....***......**.......

*** Life<ConwayCell> 9x22 ***

Generation = 0, Population = 66.
*..**...*..**........*
.......*.*.*...*..*.**
......*......***......
..**...*..**..*......*
...*...*.***...****.*.
.*...*..***....*.**.*.
...**.*...**.*..*.....
......*.....**..*.*.**
.*..*.*.*..*.*.*....*.

Generation = 4, Population = 38.
......................
...................*..
..........*.......***.
..**....**.....**.**..
........***...........
.......**.......***...
...*.......***....**..
..*..*.......**....*..
...*.*.......**...**..

Generation = 8, Population = 36.
..................***.
.................**..*
...................***
........***.....*...*.
.......*...*...**...**
........*.*.*....*.*.*
.........*..*......***
............**....*.*.
...................*..

*** Life<ConwayCell> 3x18 ***

Generation = 0, Population = 19.
.*.*..**..*..**...
*..*.*.*...*..*...
......***.*.....**

Generation = 4, Population = 13.
...........***....
....*..**.........
.....***...****...

Generation = 8, Population = 0.
..................
..................
..................

Generation = 12, Population = 0.
..................
..................
..................

Generation = 16, Population = 0.
..................
..................
..................

*** Life<ConwayCell> 4x10 ***

Generation = 0, Population = 2.
........*.
..........
..........
........*.

Generation = 3, Population = 0.
..........
..........
..........
..........

Generation = 6, Population = 0.
..........
..........
..........
..........

*** Life<ConwayCell> 13x24 ***

Generation = 0, Population = 75.
..**..*.**.*.**.*.......
.......***...*....***...
...*.*.........*.*....*.
........*.*.......*.....
...**.....*.*...........
.......*.....**....*..*.
*..*...*.*....*.*.......
.....*.....*......*.....
.*.*.*.........**.......
*.....*.*...*..*......**
**.*...*...........*..*.
......***..*...*.****...
.**.*..*....*..*........

Generation = 4, Population = 54.
...*****.....**.........
..**....**.**.*..**.....
..*.......*...*.........
....***...**.*..........
....*.....****..........
......**................
....*.***...............
...*.*..*...............
.*.....*................
.*..*.**........*.......
.....***.......*.*......
.*.............**.......
........................

Generation = 8, Population = 48.
.**......**..*.*........
*..*.....**.............
.**..........**.........
..*****......***........
...*...*..**..*.........
......*....***..........
.....*.....**...........
....*...................
..***...................
................*.......
......***......*.*......
......**.......**.......
........................

*** Life<ConwayCell> 14x25 ***

Generation = 0, Population = 113.
*.*.....***...**..**..**.
..***.*.....*..*.........
...*.......*........*....
*.*.*....*........*.*.*.*
*..*.........*.........**
**.*..**...*.....**..*...
**....*...*.........*..**
***.**...**...**........*
...*..*..**......*.*..*..
**.***.*...*.*******.*...
*.*.**.*..*......**.....*
**...*...**...*.*.***.**.
*.**........*..*.*...*...
..*......*......*......*.

Generation = 3, Population = 99.
.***.....**...**.........
*..*.....**...**...*.....
*.*..*...**.......**.....
*.....*..................
*......*..........**.**..
.*..*****.**......***.***
........*.**..........***
..*......*.**......*...**
..**.......*.**...*.*..*.
****.*....*.****.**.*....
.**.........*...*.*....*.
.****.........*...*....**
.*..*.........*..........
..***...........*..*.....

Generation = 6, Population = 85.
.**.*....**...**.........
*...*...*..*..**..**.....
**......***......**.**...
........**...............
**...*****.......**...*..
........*........**...*..
...*.....*........*.*.*..
...*..*.........**.***...
...***........**.**......
.............*.**.**.....
..............*.***....**
..............*.**.....**
.**.*........**.*........
.****....................

*** Life<ConwayCell> 15x22 ***

Generation = 0, Population = 10.
......................
.....................*
..*...................
...........*..........
......................
....*.........*.......
......................
......................
......................
.......*..............
.....*................
*...........*....*....
......................
......................
......................

Generation = 5, Population = 0.
......................
......................
......................
......................
......................
......................
......................
......................
......................
......................
......................
......................
......................
......................
......................

*** Life<ConwayCell> 5x3 ***

Generation = 0, Population = 6.
...
*..
..*
**.
.**

Generation = 4, Population = 4.
...
...
...
**.
**.

Generation = 8, Population = 4.
...
...
...
**.
**.

Generation = 12, Population = 4.
...
...
...
**.
**.

Generation = 16, Population = 4.
...
...
...
**.
**.

*** Life<ConwayCell> 3x25 ***

Generation = 0, Population = 21.
..*.*.........*.......*..
........*..*.**.***.....*
...**.*.**.....*.*..*.*..

Generation = 4, Population = 15.
.......**.......**.......
......*.......****.......
......**......****.......

Generation = 8, Population = 5.
.......*.................
......*.*................
......**.................

Generation = 12, Population = 5.
.......*.................
......*.*................
......**.................
