*** Life<ConwayCell> 8x13 ***

Generation = 0, Population = 51.
.............
.****.*****..
..**...**..*.
.***.*.*.****
..******.*.**
...**.*..**..
.*.***..**.**
.***...*.**..

Generation = 9, Population = 12.
.........*...
........*.*..
.......*...*.
........*.*..
.........*...
.............
..........**.
..........**.

Generation = 18, Population = 7.
.......*.....
......*.*....
.....*..*....
......**.....
.............
.............
.............
.............

Generation = 27, Population = 7.
.......*.....
......*.*....
.....*..*....
......**.....
.............
.............
.............
.............

*** Life<ConwayCell> 8x18 ***

Generation = 0, Population = 75.
..................
...*...*.*.****..*
....***.****...***
...**..********.*.
.*.****.****.*****
.****.**.********.
..******.**..**...
.***..**.*..*...*.

Generation = 8, Population = 14.
.....**...........
.....**...........
...........**.**..
...........*...*..
............***...
.............*....
..................
..................

Generation = 16, Population = 30.
.....**...........
.....**...**...**.
........**.*...*.*
........*........*
........*.*.....**
.........**.***.**
...........*...*..
...........*...*..

*** Life<ConwayCell> 8x17 ***

Generation = 0, Population = 29.
.................
....**...**.**...
..*.*.***..*.**..
...*.............
...*.*...***....*
.*......*..***...
........*........
....*..........*.

*** Life<ConwayCell> 13x15 ***

Generation = 0, Population = 93.
...............
..*...**..**.*.
.**.*...*..**.*
..**.***..*....
.*****..*.***.*
.*.....**.**.**
.**..**.*..**.*
..*..*.**...**.
.*.*.****.**..*
.***...**.****.
...*.*****.**..
.*.*..*.***.*..
.*..******.***.

Generation = 9, Population = 38.
...............
..........**...
..........*.*..
......*.....**.
.....**....*...
.....*..***....
......**.***...
**.*...****....
*.***........*.
.*****.........
.....**........
...............
...............

Generation = 18, Population = 43.
...............
.........*.*...
.........*.***.
...........*..*
..........**.**
..........**...
..*.*.*......*.
*.*...*.**.**..
..*.*....**....
*.**.***..*....
*.*..*...*.....
.*.............
.....*.*.......

Generation = 27, Population = 26.
...............
...............
...............
...............
.........*.....
.........**....
.......**......
..****..*.**...
..**.****.**...
...*****.......
....*..........
...............
...............

*** Life<ConwayCell> 26x24 ***

Generation = 0, Population = 77.
........................
.....*............*.**..
.*......................
.....*.......*..........
.*..........*......*....
.........*.........**...
...*...*...**...........
.*....*.......*.*.......
.....***......*.........
.*.*..........***.**....
...*..............*...*.
.......*......*.........
......**................
.........*........*.*...
..................*..**.
...*..........*.........
...**....*.............*
........*......*....*...
...*....................
...........*.*.......*..
..**....................
.*...........*......*.*.
.......*......**...*....
.**...........**........
...*.....**.............
...............*...*....

Generation = 10, Population = 65.
........................
........................
........................
........................
...................**...
....*...................
..**.**......*...*..*...
..**..*.....*.*.........
.*....**.....*...**.....
***..**.................
..*.**..................
....*...*...............
........*...............
........*...............
.*.*....................
....*...................
*..***.*................
.*..*..*................
.....*.*.....*..........
............***.........
...........*****........
..........**............
.........**.............
...........***..........
............***.........
........................

Generation = 20, Population = 73.
........................
........................
...***..................
...*.*..................
..*..*..................
.*..*...................
..*.*........*..........
............*.*.........
.....*..*....*..........
.....*....*.............
......*...*.............
.....*..................
.....*....*.............
.***.*....*.............
.***.*....*.............
...*.**.................
.*..******..............
.*..*..*................
......*.................
...*....*...............
....*...*...............
..........***...*.......
........*..**...*.......
......**..*.....*.......
..........**.*.*........
..........**.***........

*** Life<ConwayCell> 13x16 ***

Generation = 0, Population = 20.
................
.*.*...*....*..*
....*....*..*...
................
..............*.
................
.....*..........
..............*.
................
....*.......*...
.*...*.*.....*..
................
..**.....*......

Generation = 5, Population = 0.
................
................
................
................
................
................
................
................
................
................
................
................
................

Generation = 10, Population = 0.
................
................
................
................
................
................
................
................
................
................
................
................
................

*** Life<ConwayCell> 13x8 ***

Generation = 0, Population = 44.
........
.*.***..
.**.**.*
.......*
.*.***.*
.*....**
.**..*..
..*..***
.*..***.
.**...*.
.**.**.*
.*..*.**
.**...*.

Generation = 4, Population = 30.
.******.
*.***.*.
*.......
**......
.*....**
.*..*.*.
........
..*.....
........
..**....
......*.
...**...
...****.

Generation = 8, Population = 26.
........
........
.***....
*....**.
*.****.*
***.**.*
......*.
........
........
........
..***...
..*.....
..***...

*** Life<ConwayCell> 28x24 ***

Generation = 0, Population = 138.
........................
.....**....*.*.*.*......
.*...*.**...............
.......***.*....**......
..**.....*........*.*...
..*.......*.......*.....
........**.....*..*.*...
..*..........*.*...*.*.*
.*.*...**....*........**
....*.*..*.**.........**
....*...***.....**......
.*.*.....*.***..**......
..........*...........**
.*.............*........
.....*......**..*.......
...*.*.....**.......*...
........**.....*.....*.*
.*...*..*.....*..*..*...
.....*..*****...*.***.*.
..........*......*..**..
......*....***......*...
........*......*........
..........*...*....**...
......*....**......*....
..............*.**......
...**.*.....**...*..*..*
.............*....*....*
.*.......**.....*....*.*

Generation = 5, Population = 108.
........................
.....*....**............
.....*...*..*...........
.....**...**............
**....*...*.......*.....
..*....*.*.......*......
....****..****..***.....
**.*.*......*.*...*...*.
.*.....*......**....*.*.
..*..*.*..***.**......*.
..**.*.*.......*........
...****.................
........................
...........*.**.........
....*....**..*...*......
....*.....*.......**....
....*...*..*........**..
...........*..*...*.....
........*.........*.**..
........*.........*.....
........*...**..****.*..
.........**.*.......*...
....................*...
............***.........
............*...........
........................
................*.*.....
.................*......

Generation = 10, Population = 91.
........................
....*.*...**............
....*.....**............
...*..*.....*...........
..**..*.................
..**..*.........*.*.....
.......*.............**.
..**.**.**....*.*.*.**.*
...........*......**....
.....*..**.*...*....**.*
..**...........*......*.
...*........*.*.........
...*....................
..***.....*.***...*.....
..***......****..*......
...**.....*.......*.....
.........*..............
........*.........*.....
......**.*.........*....
......**.*........***...
.......**...............
........................
........................
............**..........
............**..........
........................
........................
........................

*** Life<ConwayCell> 27x14 ***

Generation = 0, Population = 65.
..............
...........*..
.......*..*...
...........*..
......*.......
..*...**.**...
..............
....*.....*...
.*..........*.
..**.*...*..*.
..............
..*...**.*....
......**......
.....*..*....*
...*.....*...*
..***..*.**..*
.......*.**..*
.........*...*
...**.*...*..*
..............
....*.........
..*..*....*..*
.......*.*....
.**...........
.........**...
...*....*.*...
.......*..*...

Generation = 3, Population = 56.
..............
..............
..............
..............
......*....*..
......*.**....
.......**.*...
..**..........
..***.........
.*..*.........
..***.*.......
....***.......
.....*...*....
.....**..**.*.
...*.**..**.*.
..*.**..*.**..
...**.......*.
....*.......*.
..............
...***........
..............
..............
.........*....
.........*....
.........*....
.........**...
.........**...

Generation = 6, Population = 43.
..............
..............
..............
........*.....
.......***....
......*..*....
.......**.....
...*..........
.*.*..........
.*.*..........
..............
..............
........*.....
.......*..*...
......*..*..*.
.......*..***.
...**.......*.
..**..........
..*..*........
...*.*........
....*.........
..............
.........*....
........*.*...
.......**.**..
........*.*...
.........*....

Generation = 9, Population = 62.
..............
..............
........*.....
......**.**...
......**.**...
......*..**...
.......**.....
..............
..............
..............
..............
..............
..............
.......*.****.
......*...**.*
..**...***....
.*.*....*..*.*
.*..........*.
.*..*.........
..*.*.........
...**.........
.........*....
........***...
.......*****..
......**...**.
.......*****..
........***...

Generation = 12, Population = 64.
..............
.......***....
......*...*...
.....*.....*..
.....*.....*..
.....*.....*..
......*...*...
.......***....
..............
..............
..............
..............
..........**..
..............
........*.....
.***..**......
**.**..*...*..
*..*....****..
*****.........
..*..*........
....**..***...
....*..*...*..
......*.....*.
.....*...*...*
.....*..*.*..*
.....*.*...*.*
..............

Generation = 15, Population = 65.
.......***....
......*****...
.....*.....*..
....**..*..**.
...***.*.*.***
....**..*..**.
.....*.....*..
......*****...
.......***....
........*.....
..............
..............
..............
..*....*......
*...*..*......
......*.......
*.....*.......
....***...***.
......*.......
..............
..............
...**......*..
........**...*
.......*......
......**.....*
.........*....
..............

Generation = 18, Population = 50.
..............
.....*.....*..
....**.....**.
..*..*..*..*.*
..*.*..*.*..**
..*..*..*..*.*
....**.....**.
......**.**...
......*.*.*...
..............
.......***....
..............
..............
..............
......*.......
......***.....
.........*.*..
......**...*..
......*....*..
..............
..............
..............
..............
......*.......
......*.......
.......*......
..............

Generation = 21, Population = 30.
...........*..
..........**..
.......*****..
........*.....
...**.........
...**.......**
..............
..............
.......***....
.......***....
..............
..............
..............
..............
......**......
......**......
........*.....
......*.*.....
......**......
..............
..............
..............
..............
..............
..............
..............
..............

Generation = 24, Population = 34.
........****..
........***.*.
...........*..
........*.....
...**...*.....
...**.........
..............
........*.....
.......*.*....
.......*.*....
........*.....
..............
..............
..............
.....***......
........**....
....*...**....
........**....
.....***......
..............
..............
..............
..............
..............
..............
..............
..............

Generation = 27, Population = 24.
..............
........****..
........****..
..............
...**.........
...**.........
..............
........*.....
.......*.*....
.......*.*....
........*.....
..............
..............
..............
..............
.......*..*...
......*...*...
.......*..*...
..............
..............
..............
..............
..............
..............
..............
..............
..............

*** Life<ConwayCell> 10x7 ***

Generation = 0, Population = 17.
.......
...***.
.*.....
...*...
......*
.*..*.*
......*
.*...**
.......
..****.

*** Life<ConwayCell> 27x14 ***

Generation = 0, Population = 88.
..............
..**....*.....
....*.*......*
.*...*.*.*.*.*
.....*.....***
....*...*.....
.*.*...**.*...
.*........*...
.....*..*.....
.*.***...*....
........*..*..
..*.........**
...*...*.*...*
......**.....*
..*..*.*..**..
..*...***....*
.*..*...*....*
..*...*.....*.
.............*
.*..........*.
.*.**.*.......
...........**.
....*...*.*...
.***..........
........*....*
..*......*.*.*
.*.*.....**.**

Generation = 4, Population = 106.
......*.......
..**.*.*......
..**.*..*****.
..*..**..*.*.*
..*....*.*.*.*
..*....*....*.
...*.*.*......
......*.......
.........**...
.***.....***..
..**..*...*.*.
..**..*..*....
....*....*..*.
...***.....*..
..****......*.
.*...*.**.*.*.
.*.**...**.*..
..**....**.*..
...........*..
..............
...........**.
..........*...
.........*..*.
.***..........
**.**....**.*.
**.**..*...**.
..*.....*****.

Generation = 8, Population = 86.
.....*....**..
....**.....**.
........****.*
....***..***.*
.........*.*..
.....*****....
..............
..............
.***..........
.*..*.....*...
.....*...*.*..
.**.**..**.**.
**..**.....**.
**............
*.***.........
***...**......
**..*.........
..**....***...
..**.....**...
...........*..
...........*..
..*......**...
..*......*.*..
..........**..
.............*
...........***
..............

Generation = 12, Population = 83.
...***.....**.
...*..*...*..*
....*..*.*....
...**...***...
.......**...*.
.....*..*..*..
.***..*.......
*..**.*.......
**.*......**..
.........*.*..
.........*.**.
.........*.**.
...***...*.**.
....***..*.*..
....**.**.....
...*.....*....
...*.*...**...
...*.....**...
..........*...
..............
..........***.
..........*..*
............*.
.........*..*.
.........***..
..........**..
............*.

Generation = 16, Population = 72.
...***........
...*...****...
....**.*.**...
..............
..**...*......
.*.....*..*...
**......**....
**..***.......
**....*.***...
.*.......**...
.........***..
..........**..
..............
......*.......
....**.*......
..**.*.*..*...
.*...*...**...
..*.*.....*...
...*..........
.........*.*..
..........*...
..............
..........****
..........**.*
............**
............*.
..............

Generation = 20, Population = 75.
...*******....
...*..*...*...
.....*.****...
......*..*....
..........*...
.....**...*...
....***....*..
..*****...*...
..**.**.......
......*.*.....
..............
..............
.......*......
...*...**.....
..*.**.*.**...
.*....*.***...
**..****.*.*..
.**....*..**..
..*........*..
..............
..............
........*.*...
.........**...
..............
............**
............**
..............

Generation = 24, Population = 60.
...*.*****....
...*.*....*...
.........***..
........*..*..
.......*.*.*..
......*..*....
.....*........
......**......
..............
..............
......**......
.......**.....
.......*......
....**.*.*....
....*....*....
...*..*..*....
...*..*....*..
**..........**
.*.***.....**.
...........**.
..........*...
.........**...
.........**...
..............
............**
............**
..............

Generation = 28, Population = 71.
.......**.....
......**......
......**...**.
......***....*
......***..**.
......*.......
.....*.**.....
......**......
.......*......
.......**.....
......*.**....
.....*..**....
....**.***....
....*.........
..***.*..*....
.*.......*.*..
*.*..**...*...
*.*...........
*.*.*.....*...
.****....*....
..**....**....
..........*...
..............
..............
............**
............**
..............

*** Life<ConwayCell> 27x24 ***

Generation = 0, Population = 155.
........................
.*..**.........**....***
...*.***..*.*..........*
...*.....*..........**.*
....*.*..*..*..........*
......*..*..***..**..**.
.*....*.*...**.....*....
...*.***...*.....*......
.......*..**.*...*....*.
....*..*........*.*.*.*.
......**............***.
.*..*..............**...
..*.......*..*...*.*...*
...........*.*.....*....
...*....***.*.*......*.*
....**.*.......*.*.*....
.*..*.*..*.*......*.*.*.
..**.......*...*.*..*.**
..*......*.......*.*.*..
...*.**...*..**.........
..*.................*...
...*.........*.....*.*..
....**...**.......**..*.
....*...*.*.**..**..***.
.*..*...***..*........*.
..*.......*.*..**.......
.*..........*......*....

Generation = 2, Population = 152.
......................**
...****..............***
..**.******............*
..**.*.*...*..........**
......*.....*.........**
...........***..........
........*..*.**..**.....
....***.*....*..*.*.....
....**....*.*...*...***.
....*....*.*....**.**.**
......***...........*.*.
......*...........**....
............**......**..
.........*....*...*.**..
...**.****....*..**...*.
......***....*........**
.*....**........*.......
.*..**.........**...*...
....*..........**...*.**
.*...........***....*...
....................**..
..........**..*..*...*..
..*..*...***.*........**
..*..*..*...........*.**
...**...........**.*.***
..*......**.**..........
...........**...........

Generation = 4, Population = 142.
...**.................*.
...**...*.*.........**..
....*......*............
........*..*..........*.
...........**...........
......*.....***.........
.....*.**..*....****....
....*..*.*...*......***.
...**........*......****
....*.......*..*...**...
..........*.....**.**.**
.....**...........*****.
.................**.**..
......*.*.....*.....*.**
......*..**..**.*..*....
........**....**.*....**
.....*..........**....*.
....*.*.........*...*...
....*.*........**.**....
..............***.......
............**.**.....*.
...........*.*......***.
........**..*.......**..
..*.*...**.*........***.
..*.*....*.*........***.
..***....**..*.......**.
..........*..*..........

Generation = 6, Population = 121.
....*...................
.....*....*.........***.
....*....*.*............
.........*..*...........
..........***...........
......***........*..*...
........*....*..*...*...
...*...**...*.*..*..*.*.
..*.........**....*.....
...*.........*.**.....**
....*..........**.....**
.....*..........*.*....*
......***.....**..**..**
.......**....***..**.**.
..........*.*...*..*.*.*
.........**..**.***....*
.....*...*.......*.*.*.*
.....*............***.*.
..................**....
............***.........
.....................*..
..........**..*......*..
...................**...
.............*..........
.**.**.......*..........
.**.**...*..*...........
...*.....***............

Generation = 8, Population = 116.
........................
..........*.........***.
.........*.*............
............*...........
.......*.....*..........
......*......*..........
......*..***.*..**.**...
.......**...*.*....*.*..
..**.......**.......**.*
..***.......**...*...*.*
....***.......*...*.....
.....***.....**..*.**...
........**...**.*.*****.
........*.**.*.***...*..
.......**....**...*.....
........*......***.....*
.........*.*...***..**.*
.................*..***.
.....................*..
.............**.........
............**..........
........................
........................
........................
.**.**.....***..........
.*...*...*...*..........
..***....*.**...........

Generation = 10, Population = 99.
........................
..........**........***.
..........**............
............**..........
...........**.*.........
......***.*........*....
......*....****...*.**..
.......*...**.....*..**.
...*....*.**.......*....
...*.......*.*....*..*..
.......**..**....*****..
......*..........*.*....
........*.*..........**.
..........**.........**.
.......*.........*...**.
.......*.*.......**.....
........*........***....
...................**.*.
.............*.......*..
............*.*......*..
............*.*.........
.............*..........
........................
............**..........
.**.**......**..........
.*...*.....*.*..........
..***...................

Generation = 12, Population = 107.
........................
..........**........***.
.........**.............
..........*.*...........
......**..****..........
......*.***.**.....**...
......*.**........*...*.
.......*.*.......**....*
.......*.*.......***....
.......*****.....*.*....
.......*...**...**..***.
........**........*...*.
............*......**.**
........*..........**..*
........*.**.....******.
.......***......*..***..
..................*..*..
...................*..*.
.............*.......**.
............*.*.........
............*.*.........
..............*.........
..............*.........
...........*..*.........
.**.**........*.........
.*...*..................
..***...................

*** Life<ConwayCell> 24x15 ***

Generation = 0, Population = 137.
...............
.****....**.***
.*****...*...*.
.**.......*..*.
..*........****
.*..**..*..*...
...***.*....**.
.*...*....*****
.**...***.*...*
..*..*..*......
.....*...*..*.*
....***.*...**.
.*.*.**.**.*.*.
..*****...*..**
.....*....*.*..
.*..*..*.*.**..
.*..***.**....*
...***...*....*
..*..*..*.*.***
....*.**.**.*.*
.*.*..*..*..*..
.*........**.**
.*.*.*..*....*.
.***.*...**.**.

Generation = 9, Population = 98.
..**.....*...*.
**.*....*......
***......*.....
..*.......*..*.
***......*.....
***.....**.*...
.......**..*...
......*.**.....
.....*.**......
.**.**.**......
.....*.*.......
......**..*....
.......**.*....
.*....*........
*....***.*.....
*....*...*.*...
*...*......*...
**...*.*.......
***.**.**......
..*.*...**.....
***.**....***..
**...*..*..**..
*....**...***..
.*.............

*** Life<ConwayCell> 23x22 ***

Generation = 0, Population = 118.
......................
...........*......*...
..**.*.....**.....*..*
....*...*.*..*....***.
...**.*.......*.*.*.*.
.*...........*........
....***...*...........
.*.***....*.......**..
.....*..*.....*......*
.*....**.*.*..*...**..
.**...*...**......*.*.
......*...*......*....
.............*...*....
..*..***.*.........**.
........*...**.*.*..*.
.....*..**....*..*..*.
.*.*..**.......**...*.
...*.....*......*..*..
...*...**.****....*...
..*.....*.....*.......
...*.*.......**...*...
..*..*...*..*.*....*..
....*.*....***.*......

*** Life<ConwayCell> 22x9 ***

Generation = 0, Population = 58.
.........
.*...***.
....*..*.
.*....*.*
.*..*....
..*.*....
......*..
.....*...
..*...*.*
.***.*.*.
...**....
....*....
..*.*.*..
..*...*.*
.*...**.*
......***
.......*.
..**...*.
..**..**.
..*.*.**.
.**.**..*
..*....*.
